<?xml version="1.0" encoding="UTF-8"?>
<glyph name="OE" format="2">
	<advance width="1350"/>
	<unicode hex="0152"/>
	<outline>
		<contour>
			<point x="299" y="0" type="line"/>
			<point x="651" y="0" type="line"/>
			<point x="800" y="149" type="line"/>
			<point x="800" y="0" type="line"/>
			<point x="1300" y="0" type="line"/>
			<point x="1300" y="100" type="line"/>
			<point x="900" y="100" type="line"/>
			<point x="900" y="375" type="line"/>
			<point x="1250" y="375" type="line"/>
			<point x="1250" y="475" type="line"/>
			<point x="900" y="475" type="line"/>
			<point x="900" y="750" type="line"/>
			<point x="1300" y="750" type="line"/>
			<point x="1300" y="850" type="line"/>
			<point x="800" y="850" type="line"/>
			<point x="800" y="701" type="line"/>
			<point x="651" y="850" type="line"/>
			<point x="299" y="850" type="line"/>
			<point x="50" y="601" type="line"/>
			<point x="50" y="249" type="line"/>
		</contour>
		<contour>
			<point x="340" y="100" type="line"/>
			<point x="150" y="290" type="line"/>
			<point x="150" y="560" type="line"/>
			<point x="340" y="750" type="line"/>
			<point x="610" y="750" type="line"/>
			<point x="800" y="560" type="line"/>
			<point x="800" y="290" type="line"/>
			<point x="610" y="100" type="line"/>
		</contour>
	</outline>
</glyph>
