<?xml version="1.0" encoding="UTF-8"?>
<glyph name="otilde.ss01" format="2">
	<advance width="524"/>
	<outline>
		<component base="o.ss01"/>
		<component base="tildecomb" xOffset="-26" yOffset="-175"/>
	</outline>
</glyph>
