<?xml version="1.0" encoding="UTF-8"?>
<glyph name="plus" format="2">
	<advance width="700"/>
	<unicode hex="002B"/>
	<outline>
		<contour>
			<point x="300" y="175" type="line"/>
			<point x="400" y="175" type="line"/>
			<point x="400" y="375" type="line"/>
			<point x="600" y="375" type="line"/>
			<point x="600" y="475" type="line"/>
			<point x="400" y="475" type="line"/>
			<point x="400" y="675" type="line"/>
			<point x="300" y="675" type="line"/>
			<point x="300" y="475" type="line"/>
			<point x="100" y="475" type="line"/>
			<point x="100" y="375" type="line"/>
			<point x="300" y="375" type="line"/>
		</contour>
	</outline>
</glyph>
