<?xml version="1.0" encoding="UTF-8"?>
<glyph name="quotesinglbase" format="2">
	<advance width="452"/>
	<unicode hex="201A"/>
	<outline>
		<contour>
			<point x="150" y="-129" type="line"/>
			<point x="250" y="-129"/>
			<point x="340" y="-20"/>
			<point x="325" y="104" type="curve" smooth="yes"/>
			<point x="317" y="156"/>
			<point x="280" y="196"/>
			<point x="225" y="196" type="curve" smooth="yes"/>
			<point x="170" y="196"/>
			<point x="125" y="151"/>
			<point x="125" y="96" type="curve" smooth="yes"/>
			<point x="125" y="41"/>
			<point x="170" y="-4"/>
			<point x="225" y="-4" type="curve"/>
			<point x="225" y="-8" type="line" smooth="yes"/>
			<point x="220" y="-72"/>
			<point x="158" y="-92"/>
			<point x="150" y="-92" type="curve"/>
		</contour>
	</outline>
</glyph>
