<?xml version="1.0" encoding="UTF-8"?>
<glyph name="U" format="2">
	<advance width="700"/>
	<unicode hex="0055"/>
	<anchor x="375" y="2" name="ogonek"/>
	<anchor x="350" y="850" name="top"/>
	<anchor x="655" y="850" name="topright"/>
	<anchor x="350" y="0" name="bottom"/>
	<outline>
		<contour>
			<point x="350" y="0" type="curve" smooth="yes"/>
			<point x="502" y="0"/>
			<point x="625" y="123"/>
			<point x="625" y="275" type="curve" smooth="yes"/>
			<point x="625" y="850" type="line"/>
			<point x="525" y="850" type="line"/>
			<point x="525" y="275" type="line" smooth="yes"/>
			<point x="525" y="178"/>
			<point x="447" y="100"/>
			<point x="350" y="100" type="curve" smooth="yes"/>
			<point x="253" y="100"/>
			<point x="175" y="178"/>
			<point x="175" y="275" type="curve" smooth="yes"/>
			<point x="175" y="850" type="line"/>
			<point x="75" y="850" type="line"/>
			<point x="75" y="275" type="line" smooth="yes"/>
			<point x="75" y="123"/>
			<point x="198" y="0"/>
		</contour>
	</outline>
</glyph>
