<?xml version="1.0" encoding="UTF-8"?>
<glyph name="uhungarumlaut.ss01" format="2">
	<advance width="575"/>
	<outline>
		<component base="u.ss01"/>
		<component base="hungarumlautcomb" xOffset="13" yOffset="-175"/>
	</outline>
</glyph>
