<?xml version="1.0" encoding="UTF-8"?>
<glyph name="aogonek.ss02" format="2">
	<advance width="793"/>
	<outline>
		<component base="a.ss02"/>
		<component base="ogonekcomb" xOffset="198" yOffset="20"/>
	</outline>
</glyph>
