<?xml version="1.0" encoding="UTF-8"?>
<glyph name="gcommaaccent.ss01" format="2">
	<advance width="686"/>
	<outline>
		<component base="g.ss01"/>
		<component base="commaturnedabovecomb" xOffset="165" yOffset="-211"/>
	</outline>
</glyph>
