<?xml version="1.0" encoding="UTF-8"?>
<glyph name="guilsinglleft" format="2">
	<advance width="652"/>
	<unicode hex="2039"/>
	<outline>
		<contour>
			<point x="505" y="-1" type="line"/>
			<point x="577" y="71" type="line"/>
			<point x="218" y="425" type="line"/>
			<point x="577" y="779" type="line"/>
			<point x="505" y="851" type="line"/>
			<point x="75" y="425" type="line"/>
		</contour>
	</outline>
</glyph>
