<?xml version="1.0" encoding="UTF-8"?>
<glyph name="ograve" format="2">
	<advance width="636"/>
	<unicode hex="00F2"/>
	<outline>
		<component base="o"/>
		<component base="gravecomb" xOffset="67" yOffset="-210"/>
	</outline>
</glyph>
