<?xml version="1.0" encoding="UTF-8"?>
<glyph name="onesuperior" format="2">
	<advance width="402"/>
	<unicode hex="00B9"/>
	<outline>
		<contour>
			<point x="194" y="450" type="line"/>
			<point x="277" y="450" type="line"/>
			<point x="277" y="850" type="line"/>
			<point x="204" y="850" type="line"/>
			<point x="50" y="595" type="line"/>
			<point x="120" y="554" type="line"/>
			<point x="194" y="678" type="line"/>
		</contour>
	</outline>
</glyph>
