<?xml version="1.0" encoding="UTF-8"?>
<glyph name="radical" format="2">
	<advance width="1125"/>
	<unicode hex="221A"/>
	<outline>
		<contour>
			<point x="425" y="-255" type="line"/>
			<point x="836" y="750" type="line"/>
			<point x="1002" y="750" type="line"/>
			<point x="1002" y="850" type="line"/>
			<point x="764" y="850" type="line"/>
			<point x="425" y="19" type="line"/>
			<point x="311" y="300" type="line"/>
			<point x="123" y="300" type="line"/>
			<point x="123" y="200" type="line"/>
			<point x="239" y="200" type="line"/>
		</contour>
	</outline>
</glyph>
