<?xml version="1.0" encoding="UTF-8"?>
<glyph name="threesuperior" format="2">
	<advance width="412"/>
	<unicode hex="00B3"/>
	<outline>
		<contour>
			<point x="206" y="446" type="curve" smooth="yes"/>
			<point x="279" y="446"/>
			<point x="337" y="503"/>
			<point x="337" y="573" type="curve" smooth="yes"/>
			<point x="337" y="608"/>
			<point x="323" y="640"/>
			<point x="296" y="666" type="curve"/>
			<point x="315" y="688"/>
			<point x="325" y="713"/>
			<point x="325" y="740" type="curve" smooth="yes"/>
			<point x="325" y="802"/>
			<point x="272" y="854"/>
			<point x="206" y="854" type="curve" smooth="yes"/>
			<point x="140" y="854"/>
			<point x="88" y="803"/>
			<point x="88" y="740" type="curve"/>
			<point x="171" y="740" type="line"/>
			<point x="171" y="761"/>
			<point x="187" y="779"/>
			<point x="206" y="779" type="curve" smooth="yes"/>
			<point x="226" y="779"/>
			<point x="242" y="761"/>
			<point x="242" y="740" type="curve" smooth="yes"/>
			<point x="242" y="718"/>
			<point x="226" y="700"/>
			<point x="206" y="700" type="curve" smooth="yes"/>
			<point x="189" y="700" type="line"/>
			<point x="189" y="625" type="line"/>
			<point x="206" y="625" type="line" smooth="yes"/>
			<point x="233" y="625"/>
			<point x="254" y="602"/>
			<point x="254" y="573" type="curve" smooth="yes"/>
			<point x="254" y="544"/>
			<point x="233" y="521"/>
			<point x="206" y="521" type="curve" smooth="yes"/>
			<point x="179" y="521"/>
			<point x="158" y="544"/>
			<point x="158" y="573" type="curve"/>
			<point x="75" y="573" type="line"/>
			<point x="75" y="503"/>
			<point x="133" y="446"/>
		</contour>
	</outline>
</glyph>
